transcript
# vsim -c work.internalCalculatorTB 
# Start time: 11:54:47 on Nov 24,2022
# ** Note: (vsim-3813) Design is being optimized due to module recompilation...
# //  Questa Intel Starter FPGA Edition-64
# //  Version 2021.2 win64 Apr 14 2021
# //
# //  Copyright 1991-2021 Mentor Graphics Corporation
# //  All Rights Reserved.
# //
# //  QuestaSim and its associated documentation contain trade
# //  secrets and commercial or financial information that are the property of
# //  Mentor Graphics Corporation and are privileged, confidential,
# //  and exempt from disclosure under the Freedom of Information Act,
# //  5 U.S.C. Section 552. Furthermore, this information
# //  is prohibited from disclosure under the Trade Secrets Act,
# //  18 U.S.C. Section 1905.
# //
# Loading work.internalCalculatorTB(fast)
# current floor:  0, desired floor:  0, en: 0, up: 0
# current floor:  1, desired floor:  0, en: 1, up: 0
# current floor:  2, desired floor:  0, en: 1, up: 0
# current floor:  3, desired floor:  0, en: 1, up: 0
# current floor:  4, desired floor:  0, en: 1, up: 0
# current floor:  5, desired floor:  0, en: 1, up: 0
# current floor:  6, desired floor:  0, en: 1, up: 0
# current floor:  7, desired floor:  0, en: 1, up: 0
# current floor:  8, desired floor:  0, en: 1, up: 0
# current floor:  9, desired floor:  0, en: 1, up: 0
# current floor:  0, desired floor:  1, en: 1, up: 1
# current floor:  1, desired floor:  1, en: 0, up: 0
# current floor:  2, desired floor:  1, en: 1, up: 0
# current floor:  3, desired floor:  1, en: 1, up: 0
# current floor:  4, desired floor:  1, en: 1, up: 0
# current floor:  5, desired floor:  1, en: 1, up: 0
# current floor:  6, desired floor:  1, en: 1, up: 0
# current floor:  7, desired floor:  1, en: 1, up: 0
# current floor:  8, desired floor:  1, en: 1, up: 0
# current floor:  9, desired floor:  1, en: 1, up: 0
# current floor:  0, desired floor:  2, en: 1, up: 1
# current floor:  1, desired floor:  2, en: 1, up: 1
# current floor:  2, desired floor:  2, en: 0, up: 0
# current floor:  3, desired floor:  2, en: 1, up: 0
# current floor:  4, desired floor:  2, en: 1, up: 0
# current floor:  5, desired floor:  2, en: 1, up: 0
# current floor:  6, desired floor:  2, en: 1, up: 0
# current floor:  7, desired floor:  2, en: 1, up: 0
# current floor:  8, desired floor:  2, en: 1, up: 0
# current floor:  9, desired floor:  2, en: 1, up: 0
# current floor:  0, desired floor:  3, en: 1, up: 1
# current floor:  1, desired floor:  3, en: 1, up: 1
# current floor:  2, desired floor:  3, en: 1, up: 1
# current floor:  3, desired floor:  3, en: 0, up: 0
# current floor:  4, desired floor:  3, en: 1, up: 0
# current floor:  5, desired floor:  3, en: 1, up: 0
# current floor:  6, desired floor:  3, en: 1, up: 0
# current floor:  7, desired floor:  3, en: 1, up: 0
# current floor:  8, desired floor:  3, en: 1, up: 0
# current floor:  9, desired floor:  3, en: 1, up: 0
# current floor:  0, desired floor:  4, en: 1, up: 1
# current floor:  1, desired floor:  4, en: 1, up: 1
# current floor:  2, desired floor:  4, en: 1, up: 1
# current floor:  3, desired floor:  4, en: 1, up: 1
# current floor:  4, desired floor:  4, en: 0, up: 0
# current floor:  5, desired floor:  4, en: 1, up: 0
# current floor:  6, desired floor:  4, en: 1, up: 0
# current floor:  7, desired floor:  4, en: 1, up: 0
# current floor:  8, desired floor:  4, en: 1, up: 0
# current floor:  9, desired floor:  4, en: 1, up: 0
# current floor:  0, desired floor:  5, en: 1, up: 1
# current floor:  1, desired floor:  5, en: 1, up: 1
# current floor:  2, desired floor:  5, en: 1, up: 1
# current floor:  3, desired floor:  5, en: 1, up: 1
# current floor:  4, desired floor:  5, en: 1, up: 1
# current floor:  5, desired floor:  5, en: 0, up: 0
# current floor:  6, desired floor:  5, en: 1, up: 0
# current floor:  7, desired floor:  5, en: 1, up: 0
# current floor:  8, desired floor:  5, en: 1, up: 0
# current floor:  9, desired floor:  5, en: 1, up: 0
# current floor:  0, desired floor:  6, en: 1, up: 1
# current floor:  1, desired floor:  6, en: 1, up: 1
# current floor:  2, desired floor:  6, en: 1, up: 1
# current floor:  3, desired floor:  6, en: 1, up: 1
# current floor:  4, desired floor:  6, en: 1, up: 1
# current floor:  5, desired floor:  6, en: 1, up: 1
# current floor:  6, desired floor:  6, en: 0, up: 0
# current floor:  7, desired floor:  6, en: 1, up: 0
# current floor:  8, desired floor:  6, en: 1, up: 0
# current floor:  9, desired floor:  6, en: 1, up: 0
# current floor:  0, desired floor:  7, en: 1, up: 1
# current floor:  1, desired floor:  7, en: 1, up: 1
# current floor:  2, desired floor:  7, en: 1, up: 1
# current floor:  3, desired floor:  7, en: 1, up: 1
# current floor:  4, desired floor:  7, en: 1, up: 1
# current floor:  5, desired floor:  7, en: 1, up: 1
# current floor:  6, desired floor:  7, en: 1, up: 1
# current floor:  7, desired floor:  7, en: 0, up: 0
# current floor:  8, desired floor:  7, en: 1, up: 0
# current floor:  9, desired floor:  7, en: 1, up: 0
# current floor:  0, desired floor:  8, en: 1, up: 1
# current floor:  1, desired floor:  8, en: 1, up: 1
# current floor:  2, desired floor:  8, en: 1, up: 1
# current floor:  3, desired floor:  8, en: 1, up: 1
# current floor:  4, desired floor:  8, en: 1, up: 1
# current floor:  5, desired floor:  8, en: 1, up: 1
# current floor:  6, desired floor:  8, en: 1, up: 1
# current floor:  7, desired floor:  8, en: 1, up: 1
# current floor:  8, desired floor:  8, en: 0, up: 0
# current floor:  9, desired floor:  8, en: 1, up: 0
# current floor:  0, desired floor:  9, en: 1, up: 1
# current floor:  1, desired floor:  9, en: 1, up: 1
# current floor:  2, desired floor:  9, en: 1, up: 1
# current floor:  3, desired floor:  9, en: 1, up: 1
# current floor:  4, desired floor:  9, en: 1, up: 1
# current floor:  5, desired floor:  9, en: 1, up: 1
# current floor:  6, desired floor:  9, en: 1, up: 1
# current floor:  7, desired floor:  9, en: 1, up: 1
# current floor:  8, desired floor:  9, en: 1, up: 1
# current floor:  9, desired floor:  9, en: 0, up: 0
